{
  "getStaffHealthRecords" : {
    "transaction" : "getStaffHealthRecords",
    "sampleCount" : 223,
    "errorCount" : 0,
    "errorPct" : 0.0,
    "meanResTime" : 4260.179372197311,
    "medianResTime" : 141.0,
    "minResTime" : 3.0,
    "maxResTime" : 184658.0,
    "pct1ResTime" : 11896.199999999999,
    "pct2ResTime" : 24050.8,
    "pct3ResTime" : 43135.95999999999,
    "throughput" : 0.7307258762156918,
    "receivedKBytesPerSec" : 0.4303004915606077,
    "sentKBytesPerSec" : 0.9015353537794585
  },
  "getCentreHolidaysOfYear" : {
    "transaction" : "getCentreHolidaysOfYear",
    "sampleCount" : 138,
    "errorCount" : 0,
    "errorPct" : 0.0,
    "meanResTime" : 133736.26086956516,
    "medianResTime" : 126539.0,
    "minResTime" : 1088.0,
    "maxResTime" : 309603.0,
    "pct1ResTime" : 220806.80000000002,
    "pct2ResTime" : 245709.0499999999,
    "pct3ResTime" : 303117.29999999976,
    "throughput" : 0.3328581662409459,
    "receivedKBytesPerSec" : 0.8762424330545043,
    "sentKBytesPerSec" : 0.42744969590512094
  },
  "getPastChildrenData" : {
    "transaction" : "getPastChildrenData",
    "sampleCount" : 166,
    "errorCount" : 1,
    "errorPct" : 0.60240966,
    "meanResTime" : 315619.3795180723,
    "medianResTime" : 364141.0,
    "minResTime" : 135873.0,
    "maxResTime" : 424621.0,
    "pct1ResTime" : 416827.8,
    "pct2ResTime" : 419098.6,
    "pct3ResTime" : 423159.73000000004,
    "throughput" : 0.3688938074729885,
    "receivedKBytesPerSec" : 0.7385037703280488,
    "sentKBytesPerSec" : 0.8411787504388947
  },
  "suggestProgram" : {
    "transaction" : "suggestProgram",
    "sampleCount" : 127,
    "errorCount" : 1,
    "errorPct" : 0.78740156,
    "meanResTime" : 71713.64566929136,
    "medianResTime" : 58725.0,
    "minResTime" : 604.0,
    "maxResTime" : 248424.0,
    "pct1ResTime" : 156425.00000000003,
    "pct2ResTime" : 189384.39999999994,
    "pct3ResTime" : 244629.43999999997,
    "throughput" : 0.31548092209856915,
    "receivedKBytesPerSec" : 0.25493094197138316,
    "sentKBytesPerSec" : 0.3915783710813295
  },
  "findAllWithdrawalDraft" : {
    "transaction" : "findAllWithdrawalDraft",
    "sampleCount" : 120,
    "errorCount" : 0,
    "errorPct" : 0.0,
    "meanResTime" : 14423.158333333331,
    "medianResTime" : 5132.5,
    "minResTime" : 31.0,
    "maxResTime" : 186691.0,
    "pct1ResTime" : 35283.5,
    "pct2ResTime" : 54581.449999999924,
    "pct3ResTime" : 175034.31999999954,
    "throughput" : 0.38137976843891724,
    "receivedKBytesPerSec" : 0.2469285024169943,
    "sentKBytesPerSec" : 1.2450708651282232
  },
  "findAllLevels" : {
    "transaction" : "findAllLevels",
    "sampleCount" : 123,
    "errorCount" : 0,
    "errorPct" : 0.0,
    "meanResTime" : 53013.11382113822,
    "medianResTime" : 37734.0,
    "minResTime" : 237.0,
    "maxResTime" : 322655.0,
    "pct1ResTime" : 113398.20000000001,
    "pct2ResTime" : 135397.19999999998,
    "pct3ResTime" : 305487.32000000036,
    "throughput" : 0.318212628125857,
    "receivedKBytesPerSec" : 0.2026119468145105,
    "sentKBytesPerSec" : 0.2666273778632669
  },
  "findAllClass" : {
    "transaction" : "findAllClass",
    "sampleCount" : 108,
    "errorCount" : 1,
    "errorPct" : 0.9259259,
    "meanResTime" : 72109.86111111111,
    "medianResTime" : 66826.0,
    "minResTime" : 500.0,
    "maxResTime" : 308232.0,
    "pct1ResTime" : 129021.10000000003,
    "pct2ResTime" : 194747.34999999998,
    "pct3ResTime" : 300644.2799999997,
    "throughput" : 0.2679920694198716,
    "receivedKBytesPerSec" : 26.452919663483847,
    "sentKBytesPerSec" : 0.21469026134189584
  },
  "getStaffCheckInOutRecords" : {
    "transaction" : "getStaffCheckInOutRecords",
    "sampleCount" : 116,
    "errorCount" : 0,
    "errorPct" : 0.0,
    "meanResTime" : 9226.887931034478,
    "medianResTime" : 2518.5,
    "minResTime" : 10.0,
    "maxResTime" : 94869.0,
    "pct1ResTime" : 31191.399999999994,
    "pct2ResTime" : 41642.39999999999,
    "pct3ResTime" : 91734.02999999997,
    "throughput" : 0.3835788568688722,
    "receivedKBytesPerSec" : 0.22737535753848187,
    "sentKBytesPerSec" : 0.5019488947307508
  },
  "getChildrenToAssignToClass" : {
    "transaction" : "getChildrenToAssignToClass",
    "sampleCount" : 102,
    "errorCount" : 0,
    "errorPct" : 0.0,
    "meanResTime" : 27903.6568627451,
    "medianResTime" : 18538.0,
    "minResTime" : 93.0,
    "maxResTime" : 162571.0,
    "pct1ResTime" : 66135.40000000001,
    "pct2ResTime" : 86644.45,
    "pct3ResTime" : 161506.20999999996,
    "throughput" : 0.24414296245942918,
    "receivedKBytesPerSec" : 0.1389993624158664,
    "sentKBytesPerSec" : 0.1790540671943665
  },
  "getCountStaffCheckInOut" : {
    "transaction" : "getCountStaffCheckInOut",
    "sampleCount" : 120,
    "errorCount" : 0,
    "errorPct" : 0.0,
    "meanResTime" : 15281.925000000001,
    "medianResTime" : 3945.0,
    "minResTime" : 14.0,
    "maxResTime" : 198648.0,
    "pct1ResTime" : 36882.00000000001,
    "pct2ResTime" : 49905.74999999995,
    "pct3ResTime" : 192285.20999999976,
    "throughput" : 0.2913639718736646,
    "receivedKBytesPerSec" : 0.17214375291363973,
    "sentKBytesPerSec" : 0.2970546744493221
  },
  "searchBroadcastingScope" : {
    "transaction" : "searchBroadcastingScope",
    "sampleCount" : 123,
    "errorCount" : 1,
    "errorPct" : 0.8130081,
    "meanResTime" : 208251.12195121945,
    "medianResTime" : 204844.0,
    "minResTime" : 76989.0,
    "maxResTime" : 431729.0,
    "pct1ResTime" : 308542.60000000003,
    "pct2ResTime" : 341658.8,
    "pct3ResTime" : 431189.72000000003,
    "throughput" : 0.2696410485748484,
    "receivedKBytesPerSec" : 0.5178438868757153,
    "sentKBytesPerSec" : 0.528485922353243
  },
  "getTransferDrafts" : {
    "transaction" : "getTransferDrafts",
    "sampleCount" : 146,
    "errorCount" : 0,
    "errorPct" : 0.0,
    "meanResTime" : 12114.527397260268,
    "medianResTime" : 3900.5,
    "minResTime" : 20.0,
    "maxResTime" : 97202.0,
    "pct1ResTime" : 35452.4,
    "pct2ResTime" : 49799.950000000004,
    "pct3ResTime" : 91339.22000000002,
    "throughput" : 0.4572573951987973,
    "receivedKBytesPerSec" : 0.29382359964922716,
    "sentKBytesPerSec" : 0.7935023352229129
  },
  "registrationByID" : {
    "transaction" : "registrationByID",
    "sampleCount" : 132,
    "errorCount" : 0,
    "errorPct" : 0.0,
    "meanResTime" : 197804.24242424246,
    "medianResTime" : 192974.5,
    "minResTime" : 3541.0,
    "maxResTime" : 413068.0,
    "pct1ResTime" : 313487.60000000003,
    "pct2ResTime" : 352849.8,
    "pct3ResTime" : 408290.5899999998,
    "throughput" : 0.30592734225621415,
    "receivedKBytesPerSec" : 0.4103361832956718,
    "sentKBytesPerSec" : 1.3916108986615678
  },
  "leadByID" : {
    "transaction" : "leadByID",
    "sampleCount" : 108,
    "errorCount" : 0,
    "errorPct" : 0.0,
    "meanResTime" : 121160.05555555553,
    "medianResTime" : 122287.0,
    "minResTime" : 4247.0,
    "maxResTime" : 329730.0,
    "pct1ResTime" : 204441.2,
    "pct2ResTime" : 264040.55,
    "pct3ResTime" : 328903.88999999996,
    "throughput" : 0.2549725550374786,
    "receivedKBytesPerSec" : 0.3577021114914714,
    "sentKBytesPerSec" : 1.1513604438411142
  },
  "Total" : {
    "transaction" : "Total",
    "sampleCount" : 2508,
    "errorCount" : 5,
    "errorPct" : 0.19936204,
    "meanResTime" : 116827.43580542257,
    "medianResTime" : 84118.0,
    "minResTime" : 3.0,
    "maxResTime" : 450162.0,
    "pct1ResTime" : 293080.0999999999,
    "pct2ResTime" : 407946.85,
    "pct3ResTime" : 442448.58,
    "throughput" : 5.4980105882739805,
    "receivedKBytesPerSec" : 29.616799756529982,
    "sentKBytesPerSec" : 11.293606582870233
  },
  "getRegEnrolmentForm" : {
    "transaction" : "getRegEnrolmentForm",
    "sampleCount" : 124,
    "errorCount" : 0,
    "errorPct" : 0.0,
    "meanResTime" : 110385.54838709674,
    "medianResTime" : 105548.0,
    "minResTime" : 708.0,
    "maxResTime" : 377701.0,
    "pct1ResTime" : 182075.0,
    "pct2ResTime" : 248340.75,
    "pct3ResTime" : 354655.5,
    "throughput" : 0.29917220979692477,
    "receivedKBytesPerSec" : 0.5435596396181211,
    "sentKBytesPerSec" : 1.2790780610263055
  },
  "findAllLeads" : {
    "transaction" : "findAllLeads",
    "sampleCount" : 147,
    "errorCount" : 1,
    "errorPct" : 0.6802721,
    "meanResTime" : 221720.46258503402,
    "medianResTime" : 212642.0,
    "minResTime" : 101028.0,
    "maxResTime" : 400435.0,
    "pct1ResTime" : 320076.2,
    "pct2ResTime" : 352175.0,
    "pct3ResTime" : 395438.2000000001,
    "throughput" : 0.33025692640887155,
    "receivedKBytesPerSec" : 0.5370251257840793,
    "sentKBytesPerSec" : 0.7475933158357073
  },
  "getEnrollmentPlansByYear" : {
    "transaction" : "getEnrollmentPlansByYear",
    "sampleCount" : 129,
    "errorCount" : 0,
    "errorPct" : 0.0,
    "meanResTime" : 347294.5116279068,
    "medianResTime" : 390745.0,
    "minResTime" : 145471.0,
    "maxResTime" : 450162.0,
    "pct1ResTime" : 446124.0,
    "pct2ResTime" : 447665.5,
    "pct3ResTime" : 449955.89999999997,
    "throughput" : 0.2862570010917709,
    "receivedKBytesPerSec" : 0.31941484367372025,
    "sentKBytesPerSec" : 0.4749518016161316
  },
  "getAvailableVacancy" : {
    "transaction" : "getAvailableVacancy",
    "sampleCount" : 123,
    "errorCount" : 0,
    "errorPct" : 0.0,
    "meanResTime" : 65161.365853658535,
    "medianResTime" : 51305.0,
    "minResTime" : 81.0,
    "maxResTime" : 220320.0,
    "pct1ResTime" : 126906.40000000001,
    "pct2ResTime" : 167840.59999999998,
    "pct3ResTime" : 219573.84000000003,
    "throughput" : 0.313873996177372,
    "receivedKBytesPerSec" : 0.17195635923389227,
    "sentKBytesPerSec" : 0.41533131330111234
  },
  "getRegistrations" : {
    "transaction" : "getRegistrations",
    "sampleCount" : 133,
    "errorCount" : 0,
    "errorPct" : 0.0,
    "meanResTime" : 185202.58646616538,
    "medianResTime" : 180255.0,
    "minResTime" : 24525.0,
    "maxResTime" : 377986.0,
    "pct1ResTime" : 284971.2,
    "pct2ResTime" : 332511.1,
    "pct3ResTime" : 375632.18,
    "throughput" : 0.3084236767348832,
    "receivedKBytesPerSec" : 0.538357748999942,
    "sentKBytesPerSec" : 0.9523785799176764
  }
}